{
  "project_info": {
    "project_number": "696549380902",
    "firebase_url": "https://textrecognition-9e532.firebaseio.com",
    "project_id": "textrecognition-9e532",
    "storage_bucket": "textrecognition-9e532.appspot.com"
  },
  "client": [
    {
      "client_info": {
        "mobilesdk_app_id": "1:696549380902:android:e2419041e6d4478fe727e7",
        "android_client_info": {
          "package_name": "com.example.textrecognition"
        }
      },
      "oauth_client": [
        {
          "client_id": "696549380902-mpe8jo600vooqfeabmf96d1n8oo3i1lu.apps.googleusercontent.com",
          "client_type": 3
        }
      ],
      "api_key": [
        {
          "current_key": "AIzaSyAxSMH0bxnzmKmcLvYkF--YEq-YcgxOzcU"
        }
      ],
      "services": {
        "appinvite_service": {
          "other_platform_oauth_client": [
            {
              "client_id": "696549380902-mpe8jo600vooqfeabmf96d1n8oo3i1lu.apps.googleusercontent.com",
              "client_type": 3
            }
          ]
        }
      }
    }
  ],
  "configuration_version": "1"
}